GTA IV Announces Winners of the 2025 Greenies – STA9750 Submission Material
…
The award for the greenest transit agency among small (< 33rd percentile UPT) agencies goes to: Mecklenburg County, dba: Mecklenburg Transportation System. green score\(^{\text{tm}}\) of \(0.49\)

The award for the greenest transit agency among medium (33rd percentile<x<66th percentile ) City of Seattle, dba: Seattle Center Monorail, with a green score\(^{\text{tm}}\) of \(0.07\).

The award for the greenest transit agency among medium (>66th percentile UPT) Tri-County Metropolitan Transportation District of Oregon, dba: TriMet, with a green score\(^{\text{tm}}\) of \(0.19\).

For the third award, determine an additional metric on which a transit agency can be considered to be highly green (e.g., highest percentage of electrification) and then determine the appropriate winner. metric that compares state emissions per capita with agency emissions per capita. agencies with smallest metric are awarded for outstanding performance compared to their state. small sized agency category: Ohio Valley Regional Transportation Authority medium size: City of Seattle, dba: Seattle Center Monorail large size: City of Portland, dba: Portland Streetcar

Finally, for the fourth award, “name and shame” an agency which does not have particularly ‘green’ operations. As with the third award, you can determine a metric you think is best. agency with the highest percentage of their total emissions coming from the dirtiest transportation fuel, natural gas.

`summarise()` has grouped output by 'NTD ID', 'Agency'. You can override using
the `.groups` argument.

# A tibble: 98 × 6
   `NTD ID` Agency     state total_natural_gas_of…¹ total_emissions_of_a…² ratio
      <dbl> <chr>      <chr>                  <dbl>                  <dbl> <dbl>
 1    40021 City of A… Geor…           56529745491.           56529753849.  1.00
 2    30011 Altoona M… Penn…           70903389605.           70903432779.  1.00
 3    30061 Mid Mon V… Penn…           79471236177.           79471592779.  1.00
 4    10087 City of N… New …           26764320722.           26764675054.  1.00
 5    10118 MetroWest… Mass…           53946475168.           53947477147.  1.00
 6    30023 Beaver Co… Penn…           53064882915.           53065942953.  1.00
 7    30095 County of… Penn…           23384747070.           23385464384.  1.00
 8       46 City of W… Oreg…           12289806053.           12290241016.  1.00
 9    30044 Westmorel… Penn…           71865760311.           71868471209.  1.00
10    30087 County of… Penn…           13497382418.           13498578716.  1.00
# ℹ 88 more rows
# ℹ abbreviated names: ¹​total_natural_gas_of_agency, ²​total_emissions_of_agency

`summarise()` has grouped output by 'NTD ID', 'Agency'. You can override using
the `.groups` argument.

# A tibble: 97 × 6
   `NTD ID` Agency     state total_natural_gas_of…¹ total_emissions_of_a…² ratio
      <dbl> <chr>      <chr>                  <dbl>                  <dbl> <dbl>
 1    40042 Birmingha… Alab…          301065804690.          301066010874.  1.00
 2    30080 Arlington… Virg…          266294166051.          266294392550.  1.00
 3    50028 St. Cloud… Minn…          167607909140.          167608114345.  1.00
 4       11 Valley Re… Idaho          176281136740.          176281457383.  1.00
 5    50057 Rock Isla… Illi…          206304478498.          206305186726.  1.00
 6    50052 South Ben… Indi…          146097058161.          146097623772.  1.00
 7    30026 River Val… Penn…           87200955045.           87201319455.  1.00
 8       34 Rogue Val… Oreg…          102450040768.          102450689036.  1.00
 9    40006 Cape Fear… Nort…          102438559567.          102439386715.  1.00
10    50011 Stark Are… Ohio           156630240394.          156632282327.  1.00
# ℹ 87 more rows
# ℹ abbreviated names: ¹​total_natural_gas_of_agency, ²​total_emissions_of_agency

`summarise()` has grouped output by 'NTD ID', 'Agency'. You can override using
the `.groups` argument.

# A tibble: 101 × 6
   `NTD ID` Agency     state total_natural_gas_of…¹ total_emissions_of_a…² ratio
      <dbl> <chr>      <chr>                  <dbl>                  <dbl> <dbl>
 1    20206 County of… New …                1.40e12                1.40e12  1.00
 2    30006 Greater R… Virg…                7.37e11                7.37e11  1.00
 3    30054 Centre Ar… Penn…                2.08e11                2.08e11  1.00
 4    50051 Greater L… Indi…                1.87e11                1.87e11  1.00
 5    50016 Central O… Ohio                 1.03e12                1.03e12  1.00
 6    50010 METRO Reg… Ohio                 4.32e11                4.32e11  1.00
 7    40007 City of R… Nort…                3.73e11                3.73e11  1.00
 8        3 Pierce Co… Wash…                4.32e11                4.32e11  1.00
 9    30010 Lehigh an… Penn…                3.69e11                3.69e11  1.00
10    50033 Interurba… Mich…                4.06e11                4.06e11  1.00
# ℹ 91 more rows
# ℹ abbreviated names: ¹​total_natural_gas_of_agency, ²​total_emissions_of_agency
…
